…
```r
animal_bites
```

```
## # A tibble: 12,074 × 18
##        id bite_date           species_id_desc breed_id_desc breed gender_id_desc
##     <dbl> <dttm>              <chr>           <chr>         <chr> <chr>         
##  1 518378 2012-06-30 00:00:00 SKUNK           <NA>          SKUNK MALE          
##  2 518378 2012-06-30 00:00:00 SKUNK           <NA>          SKUNK MALE          
##  3 571527 2014-11-01 00:00:00 DOG             <NA>          BEAG… FEMALE        
##  4 571527 2014-11-01 00:00:00 DOG             <NA>          BEAG… FEMALE        
##  5 577969 2015-03-14 00:00:00 DOG             <NA>          <NA>  <NA>          
##  6 577969 2015-03-14 00:00:00 DOG             <NA>          <NA>  <NA>          
##  7 581174 2015-04-26 00:00:00 DOG             BEAGLE        MIX   MALE          
##  8 581174 2015-04-26 00:00:00 DOG             BEAGLE        MIX   MALE          
##  9 585126 2015-06-27 00:00:00 DOG             LABRADOR RET… MIX   MALE          
## 10 585126 2015-06-27 00:00:00 DOG             LABRADOR RET… MIX   MALE          
## # … with 12,064 more rows, and 12 more variables: color <chr>,
## #   vaccination_yrs <dbl>, vaccination_date <dttm>, victim_zip <dbl>,
## #   adv_issued_yn_desc <chr>, where_bitten_id_desc <chr>,
## #   quarantine_date <dttm>, disposition_id_desc <lgl>, head_sent_date <dttm>,
## #   release_date <dttm>, results_id_desc <chr>, followup_yn_desc <chr>
```
#Cleaning up the Data

```r
animal_bites <- animal_bites%>%
  naniar::replace_with_na(replace=list(gender_id_desc="UNKNOWN", results_id_desc="UNKNOWN", disposition_id_desc="UNKNOWN", vaccination_date="<NA>", head_sent_date="<NA>", release_date="<NA>"))
animal_bites
```

```
## # A tibble: 12,074 × 18
##        id bite_date           species_id_desc breed_id_desc breed gender_id_desc
##     <dbl> <dttm>              <chr>           <chr>         <chr> <chr>         
##  1 518378 2012-06-30 00:00:00 SKUNK           <NA>          SKUNK MALE          
##  2 518378 2012-06-30 00:00:00 SKUNK           <NA>          SKUNK MALE          
##  3 571527 2014-11-01 00:00:00 DOG             <NA>          BEAG… FEMALE        
##  4 571527 2014-11-01 00:00:00 DOG             <NA>          BEAG… FEMALE        
##  5 577969 2015-03-14 00:00:00 DOG             <NA>          <NA>  <NA>          
##  6 577969 2015-03-14 00:00:00 DOG             <NA>          <NA>  <NA>          
##  7 581174 2015-04-26 00:00:00 DOG             BEAGLE        MIX   MALE          
##  8 581174 2015-04-26 00:00:00 DOG             BEAGLE        MIX   MALE          
##  9 585126 2015-06-27 00:00:00 DOG             LABRADOR RET… MIX   MALE          
## 10 585126 2015-06-27 00:00:00 DOG             LABRADOR RET… MIX   MALE          
## # … with 12,064 more rows, and 12 more variables: color <chr>,
## #   vaccination_yrs <dbl>, vaccination_date <dttm>, victim_zip <dbl>,
## #   adv_issued_yn_desc <chr>, where_bitten_id_desc <chr>,
## #   quarantine_date <dttm>, disposition_id_desc <lgl>, head_sent_date <dttm>,
## #   release_date <dttm>, results_id_desc <chr>, followup_yn_desc <chr>
```
…
```r
animal_bites <- animal_bites%>%
  separate(bite_date, into=c("bite_year", "bite_month", "bite_day"), sep = "-")
animal_bites
```

```
## # A tibble: 12,074 × 20
##        id bite_year bite_month bite_day species_id_desc breed_id_desc   breed   
##     <dbl> <chr>     <chr>      <chr>    <chr>           <chr>           <chr>   
##  1 518378 2012      06         30       SKUNK           <NA>            SKUNK   
##  2 518378 2012      06         30       SKUNK           <NA>            SKUNK   
##  3 571527 2014      11         01       DOG             <NA>            BEAGLE …
##  4 571527 2014      11         01       DOG             <NA>            BEAGLE …
##  5 577969 2015      03         14       DOG             <NA>            <NA>    
##  6 577969 2015      03         14       DOG             <NA>            <NA>    
##  7 581174 2015      04         26       DOG             BEAGLE          MIX     
##  8 581174 2015      04         26       DOG             BEAGLE          MIX     
##  9 585126 2015      06         27       DOG             LABRADOR RETRIV MIX     
## 10 585126 2015      06         27       DOG             LABRADOR RETRIV MIX     
## # … with 12,064 more rows, and 13 more variables: gender_id_desc <chr>,
## #   color <chr>, vaccination_yrs <dbl>, vaccination_date <dttm>,
## #   victim_zip <dbl>, adv_issued_yn_desc <chr>, where_bitten_id_desc <chr>,
## #   quarantine_date <dttm>, disposition_id_desc <lgl>, head_sent_date <dttm>,
## #   release_date <dttm>, results_id_desc <chr>, followup_yn_desc <chr>
```
…
What breed of dog has the most reported bites?

```r
animal_bites%>%
  filter(species_id_desc=="DOG")
```

```
## # A tibble: 9,458 × 20
##        id bite_year bite_month bite_day species_id_desc breed_id_desc   breed   
##     <dbl> <chr>     <chr>      <chr>    <chr>           <chr>           <chr>   
##  1 571527 2014      11         01       DOG             <NA>            BEAGLE …
##  2 571527 2014      11         01       DOG             <NA>            BEAGLE …
##  3 577969 2015      03         14       DOG             <NA>            <NA>    
##  4 577969 2015      03         14       DOG             <NA>            <NA>    
##  5 581174 2015      04         26       DOG             BEAGLE          MIX     
##  6 581174 2015      04         26       DOG             BEAGLE          MIX     
##  7 585126 2015      06         27       DOG             LABRADOR RETRIV MIX     
##  8 585126 2015      06         27       DOG             LABRADOR RETRIV MIX     
##  9 605326 2016      05         21       DOG             COON HOUND      <NA>    
## 10 605326 2016      05         21       DOG             COON HOUND      <NA>    
## # … with 9,448 more rows, and 13 more variables: gender_id_desc <chr>,
## #   color <chr>, vaccination_yrs <dbl>, vaccination_date <dttm>,
## #   victim_zip <dbl>, adv_issued_yn_desc <chr>, where_bitten_id_desc <chr>,
## #   quarantine_date <dttm>, disposition_id_desc <lgl>, head_sent_date <dttm>,
## #   release_date <dttm>, results_id_desc <chr>, followup_yn_desc <chr>
```
…
When was data collected?

```r
animal_bites%>%
  count(bite_year)%>%
  arrange(bite_year)
```

```
## # A tibble: 24 × 2
##    bite_year     n
##    <chr>     <int>
##  1 1949          2
##  2 1950          2
##  3 1952          2
##  4 1971          2
##  5 1981          2
##  6 1984          2
##  7 1986          2
##  8 2001          6
##  9 2003          2
## 10 2005          2
## # … with 14 more rows
```
…
```r
animal_bites%>%
  filter(vaccination_yrs=="3")
```

```
## # A tibble: 916 × 20
##        id bite_year bite_month bite_day species_id_desc breed_id_desc   breed
##     <dbl> <fct>     <chr>      <chr>    <chr>           <chr>           <chr>
##  1 622499 2017      02         05       DOG             LABRADOR RETRIV MIX  
##  2 622499 2017      02         05       DOG             LABRADOR RETRIV MIX  
##  3 622840 2017      02         10       DOG             LABRADOR RETRIV <NA> 
##  4 622840 2017      02         10       DOG             LABRADOR RETRIV <NA> 
##  5 623128 2017      02         13       DOG             PIT BULL        <NA> 
##  6 623128 2017      02         13       DOG             PIT BULL        <NA> 
##  7 623191 2017      02         18       DOG             LABRADOR RETRIV <NA> 
##  8 623191 2017      02         18       DOG             LABRADOR RETRIV <NA> 
##  9 623929 2017      03         01       DOG             CHICHAUHUA      <NA> 
## 10 623929 2017      03         01       DOG             CHICHAUHUA      <NA> 
## # … with 906 more rows, and 13 more variables: gender_id_desc <chr>,
## #   color <chr>, vaccination_yrs <dbl>, vaccination_date <dttm>,
## #   victim_zip <dbl>, adv_issued_yn_desc <chr>, where_bitten_id_desc <chr>,
## #   quarantine_date <dttm>, disposition_id_desc <lgl>, head_sent_date <dttm>,
## #   release_date <dttm>, results_id_desc <chr>, followup_yn_desc <chr>
```

```r
animal_bites%>%
  filter(results_id_desc=="POSITIVE")
```

```
## # A tibble: 24 × 20
##        id bite_year bite_month bite_day species_id_desc breed_id_desc   breed
##     <dbl> <fct>     <chr>      <chr>    <chr>           <chr>           <chr>
##  1 627719 2017      04         29       DOG             GREAT PYRENEESE <NA> 
##  2 627719 2017      04         29       DOG             GREAT PYRENEESE <NA> 
##  3 679267 <NA>      <NA>       <NA>     BAT             <NA>            <NA> 
##  4 679267 <NA>      <NA>       <NA>     BAT             <NA>            <NA> 
##  5 682696 <NA>      <NA>       <NA>     BAT             <NA>            <NA> 
##  6 682696 <NA>      <NA>       <NA>     BAT             <NA>            <NA> 
##  7 682889 <NA>      <NA>       <NA>     BAT             <NA>            <NA> 
##  8 682889 <NA>      <NA>       <NA>     BAT             <NA>            <NA> 
##  9 683374 <NA>      <NA>       <NA>     BAT             <NA>            <NA> 
## 10 683374 <NA>      <NA>       <NA>     BAT             <NA>            <NA> 
## # … with 14 more rows, and 13 more variables: gender_id_desc <chr>,
## #   color <chr>, vaccination_yrs <dbl>, vaccination_date <dttm>,
## #   victim_zip <dbl>, adv_issued_yn_desc <chr>, where_bitten_id_desc <chr>,
## #   quarantine_date <dttm>, disposition_id_desc <lgl>, head_sent_date <dttm>,
## #   release_date <dttm>, results_id_desc <chr>, followup_yn_desc <chr>
```


```r
animal_bites%>%
  select(species_id_desc, vaccination_yrs, results_id_desc)%>%
  filter(species_id_desc=="DOG" | species_id_desc=="CAT"| species_id_desc=="FERRET"|species_id_desc=="HORSE")%>%
  filter(results_id_desc=="POSITIVE" | results_id_desc=="NEGATIVE")
```

```
## # A tibble: 362 × 3
##    species_id_desc vaccination_yrs results_id_desc
##    <chr>                     <dbl> <chr>          
##  1 DOG                          NA NEGATIVE       
##  2 DOG                          NA NEGATIVE       
##  3 DOG                          NA NEGATIVE       
##  4 DOG                          NA NEGATIVE       
##  5 DOG                          NA NEGATIVE       
##  6 DOG                          NA NEGATIVE       
##  7 DOG                          NA NEGATIVE       
##  8 DOG                          NA NEGATIVE       
##  9 DOG                          NA POSITIVE       
## 10 DOG                          NA POSITIVE       
## # … with 352 more rows
```
…
